[ 
 { "Publisher" : {
    "propertyName" : "publisher",
    "value" : "sment",
    "language" : "",
    "sourceFormat" : "yt",
    "fragmentIdentifier" : "",
    "mappingType" : "exact",
    "publisherLink" : "",
    "publisherLabel" : "sment",
    "statusCode" : 200
    } 
  }
]