[ 

  { "Language" : {
    "propertyName" : "language",
    "value" : "en",
    "language" : "",
    "sourceFormat" : "dc",
    "fragmentIdentifier" : "",
    "mappingType" : "exact",
    "languageLink" : "",
    "languageLabel" : "en",
    "statusCode" : 200
    } 
  }
]