[ 
  { "Publisher" : {
    "propertyName" : "publisher",
    "value" : "Alan Kelsey, Ltd.",
    "language" : "",
    "sourceFormat" : "dc",
    "fragmentIdentifier" : "",
    "mappingType" : "exact",
    "publisherLink" : "",
    "publisherLabel" : "Alan Kelsey, Ltd.",
    "statusCode" : 200
    } 
  }
]